<?xml version="1.0" encoding="UTF-8"?>
<svg id="Layer_1" data-name="Layer 1" xmlns="http://www.w3.org/2000/svg" xmlns:xlink="http://www.w3.org/1999/xlink" viewBox="0 0 94.32 94.08">
  <defs>
    <style>
      .cls-1 {
        fill: #fff;
      }

      .cls-2 {
        fill: #009ad9;
        filter: url(#drop-shadow-1);
      }
    </style>
    <filter id="drop-shadow-1" filterUnits="userSpaceOnUse">
      <feOffset dx="1.7" dy="1.7"/>
      <feGaussianBlur result="blur" stdDeviation="1.7"/>
      <feFlood flood-color="#231f20" flood-opacity=".21"/>
      <feComposite in2="blur" operator="in"/>
      <feComposite in="SourceGraphic"/>
    </filter>
  </defs>
  <rect class="cls-2" x="3.58" y="3.42" width="83.72" height="83.72" rx="2.83" ry="2.83"/>
  <path class="cls-1" d="m49.08,47.3h-1.45v3h-2.5v-3h-4.66v-2.16l4.32-9.12h2.84v9.08h1.45v2.2Zm-3.95-2.2v-3.01l.05-1.33.07-1.27h-.08c-.23.71-.47,1.35-.74,1.92l-1.72,3.68h2.42Z"/>
</svg>