<?xml version="1.0" encoding="UTF-8"?>
<svg id="Layer_1" data-name="Layer 1" xmlns="http://www.w3.org/2000/svg" xmlns:xlink="http://www.w3.org/1999/xlink" viewBox="0 0 51.84 52.08">
  <defs>
    <style>
      .cls-1 {
        fill: #fff;
        filter: url(#drop-shadow-1);
      }

      .cls-2 {
        fill: #009ad9;
      }
    </style>
    <filter id="drop-shadow-1" filterUnits="userSpaceOnUse">
      <feOffset dx="1.7" dy="1.7"/>
      <feGaussianBlur result="blur" stdDeviation="1.7"/>
      <feFlood flood-color="#231f20" flood-opacity=".21"/>
      <feComposite in2="blur" operator="in"/>
      <feComposite in="SourceGraphic"/>
    </filter>
  </defs>
  <rect class="cls-1" x="3.45" y="3.63" width="41.37" height="41.37" rx="2.83" ry="2.83"/>
  <g>
    <path class="cls-2" d="m21.95,31.56h-2.62v-8.38c0-.91.05-1.96.14-3.14-.05.07-.21.26-.5.6s-.85.93-1.69,1.79l-1.48-1.62,3.8-3.52h2.36v14.28Z"/>
    <path class="cls-2" d="m32.46,31.56h-7.66v-1.98l2.54-3.59c.7-.99,1.18-1.72,1.44-2.2s.45-.94.58-1.38.19-.89.19-1.36c0-.55-.12-.96-.37-1.23s-.56-.41-.95-.41c-.35,0-.67.09-.97.27s-.66.51-1.09.99l-1.48-1.56c.68-.77,1.32-1.31,1.9-1.59s1.22-.43,1.9-.43c1.15,0,2.05.34,2.7,1.02s.97,1.62.97,2.82c0,.55-.06,1.06-.18,1.55s-.29.98-.53,1.47-.54,1-.89,1.53-1.28,1.75-2.77,3.65v.08h4.68v2.36Z"/>
  </g>
</svg>