<?xml version="1.0" encoding="UTF-8"?>
<svg id="Layer_1" data-name="Layer 1" xmlns="http://www.w3.org/2000/svg" xmlns:xlink="http://www.w3.org/1999/xlink" viewBox="0 0 246.72 225.84">
  <defs>
    <style>
      .cls-1 {
        fill: #80478f;
      }

      .cls-2 {
        fill: #fff;
        filter: url(#drop-shadow-1);
      }
    </style>
    <filter id="drop-shadow-1" filterUnits="userSpaceOnUse">
      <feOffset dx="1.7" dy="1.7"/>
      <feGaussianBlur result="blur" stdDeviation="1.7"/>
      <feFlood flood-color="#231f20" flood-opacity=".21"/>
      <feComposite in2="blur" operator="in"/>
      <feComposite in="SourceGraphic"/>
    </filter>
  </defs>
  <rect class="cls-2" x="3.58" y="3.64" width="236.16" height="215.25" rx="2.83" ry="2.83"/>
  <path class="cls-1" d="m124.73,118.41h-2.62v-8.38c0-.91.05-1.96.14-3.14-.05.07-.21.26-.5.6s-.85.93-1.69,1.79l-1.48-1.62,3.8-3.52h2.36v14.28Z"/>
</svg>